 <tr>

<td><img src="<?php echo base_url('images/'.$data->foto)?>" width="100" height="100"></td>
<td><?php  echo $data->judul?> </td>
<td><?php  echo $data->kategori?></td>
<td><?php  echo $data->pengarang?></td>
<td><?php  echo $data->kode_buku?></td>
<td><?php  echo $data->penerbit?></td>
<td><?php  echo $data->thn_terbit?></td>
<td><?php  echo $data->lokasi?></td>
<td><?php  echo $data->jumlah?></td>
<td><?php  echo $data->deskripsi?></td>
</tr>




<h1>Data buku</h1><hr>
<a href="<?php echo base_url("index.php/buku/tambah"); ?>">Tambah buku</a><br><br>
<table border="1" cellpadding="8">
<tr>
  <th>kode Buku</th>
    <th>judul</th>
      <th>Kategori</th>
        <th>pengarang</th>
          <th>penerbit</th>
            <th>tahun terbit</th>
              <th>lokasi</th>
                <th>jumlah</th>
                  <th>deskripsi</th>
                    <th>foto</th>
                     
 
</tr>
<?php
if( ! empty($buku)){ // Jika data pada database tidak sama dengan empty (alias ada datanya)
  foreach($buku as $data){ // Lakukan looping pada variabel buku dari controller
    echo "<tr>";
    echo "<td><img src='".base_url("images/".$data->foto)."' width='100' height='100'></td>";
    echo "<td>".$data->kode_buku."</td>";
    echo "<td>".$data->judul."</td>";
    echo "<td>".$data->kategori."</td>";
    echo "<td>".$data->pengarang."</td>";
    echo "<td>".$data->penerbit."</td>";
    echo "<td>".$data->thn_terbit."</td>";
    echo "<td>".$data->lokasi."</td>";
    echo "<td>".$data->jumlah."</td>";
    echo "<td>".$data->deskripsi."</td>";
   
  }
}else{ // Jika data tidak ada
  echo "<tr><td colspan='5'>Data tidak ada</td></tr>";
}
?>
</table>



